date	size'/'remotesize	flags(request:Update,Range state:File response:Modified,Chunked,gZipped)	statuscode	status ('servermsg')	MIME	Etag|Date	URL	localfile	(from URL)
18:48:00	9340/9340	---M--	404	error ('Not%20Found')	text/html	etag:%225519ee21-247c%22	http://sakti.github.io/robots.txt		(from )
18:48:00	14513/14513	---MC-	200	added ('OK')	text/html	date:Fri,%2026%20Apr%202013%2002:17:40%20GMT	http://sakti.github.io/python101/	Python/%20Pemula/Python%20Pemula/sakti.github.io/python101/index.html	(from )
18:48:01	3932/3932	---M--	200	added ('OK')	text/css	date:Fri,%2026%20Apr%202013%2002:17:40%20GMT	http://sakti.github.io/python101/_static/pygments.css	Python/%20Pemula/Python%20Pemula/sakti.github.io/python101/_static/pygments.css	(from http://sakti.github.io/python101/)
18:48:01	6514/6514	---MC-	200	added ('OK')	text/css	date:Fri,%2026%20Apr%202013%2002:17:40%20GMT	http://sakti.github.io/python101/_static/solar.css	Python/%20Pemula/Python%20Pemula/sakti.github.io/python101/_static/solar.css	(from http://sakti.github.io/python101/)
18:48:02	6840/6840	---M--	200	added ('OK')	application/javascript	date:Fri,%2026%20Apr%202013%2002:17:40%20GMT	http://sakti.github.io/python101/_static/doctools.js	Python/%20Pemula/Python%20Pemula/sakti.github.io/python101/_static/doctools.js	(from http://sakti.github.io/python101/)
18:48:03	4203/4203	---M--	200	added ('OK')	text/css	date:Fri,%2026%20Apr%202013%2002:17:40%20GMT	http://sakti.github.io/python101/_static/solarized-dark.css	Python/%20Pemula/Python%20Pemula/sakti.github.io/python101/_static/solarized-dark.css	(from http://sakti.github.io/python101/)
18:48:03	11909/11909	---MC-	200	added ('OK')	text/html	date:Fri,%2026%20Apr%202013%2002:17:40%20GMT	http://sakti.github.io/python101/pendahuluan.html	Python/%20Pemula/Python%20Pemula/sakti.github.io/python101/pendahuluan.html	(from http://sakti.github.io/python101/)
18:48:03	8574/8574	---MC-	200	added ('OK')	application/javascript	date:Fri,%2026%20Apr%202013%2002:17:40%20GMT	http://sakti.github.io/python101/_static/underscore.js	Python/%20Pemula/Python%20Pemula/sakti.github.io/python101/_static/underscore.js	(from http://sakti.github.io/python101/)
18:48:04	4176/4176	---MC-	200	added ('OK')	text/html	date:Fri,%2026%20Apr%202013%2002:17:40%20GMT	http://sakti.github.io/python101/genindex.html	Python/%20Pemula/Python%20Pemula/sakti.github.io/python101/genindex.html	(from http://sakti.github.io/python101/)
18:48:04	451/451	---MC-	200	added ('OK')	text/plain	date:Fri,%2026%20Apr%202013%2002:17:40%20GMT	http://sakti.github.io/python101/_sources/index.txt	Python/%20Pemula/Python%20Pemula/sakti.github.io/python101/_sources/index.txt	(from http://sakti.github.io/python101/)
18:48:08	21371/21371	---MC-	200	added ('OK')	text/html	date:Fri,%2026%20Apr%202013%2002:17:40%20GMT	http://sakti.github.io/python101/alur_kontrol.html	Python/%20Pemula/Python%20Pemula/sakti.github.io/python101/alur_kontrol.html	(from http://sakti.github.io/python101/)
18:48:08	32881/32881	---MC-	200	added ('OK')	text/html	date:Fri,%2026%20Apr%202013%2002:17:40%20GMT	http://sakti.github.io/python101/dasar.html	Python/%20Pemula/Python%20Pemula/sakti.github.io/python101/dasar.html	(from http://sakti.github.io/python101/)
18:48:08	31428/31428	---MC-	200	added ('OK')	text/html	date:Fri,%2026%20Apr%202013%2002:17:40%20GMT	http://sakti.github.io/python101/operator_dan_ekspresi.html	Python/%20Pemula/Python%20Pemula/sakti.github.io/python101/operator_dan_ekspresi.html	(from http://sakti.github.io/python101/)
18:48:09	72174/72174	---M--	200	added ('OK')	application/javascript	date:Fri,%2026%20Apr%202013%2002:17:40%20GMT	http://sakti.github.io/python101/_static/jquery.js	Python/%20Pemula/Python%20Pemula/sakti.github.io/python101/_static/jquery.js	(from http://sakti.github.io/python101/)
18:48:10	21637/21637	---MC-	200	added ('OK')	text/html	date:Fri,%2026%20Apr%202013%2002:17:40%20GMT	http://sakti.github.io/python101/fungsi.html	Python/%20Pemula/Python%20Pemula/sakti.github.io/python101/fungsi.html	(from http://sakti.github.io/python101/)
18:48:11	15900/15900	---MC-	200	added ('OK')	text/html	date:Fri,%2026%20Apr%202013%2002:17:40%20GMT	http://sakti.github.io/python101/modul.html	Python/%20Pemula/Python%20Pemula/sakti.github.io/python101/modul.html	(from http://sakti.github.io/python101/)
18:48:13	12329/12329	---MC-	200	added ('OK')	text/html	date:Fri,%2026%20Apr%202013%2002:17:40%20GMT	http://sakti.github.io/python101/io.html	Python/%20Pemula/Python%20Pemula/sakti.github.io/python101/io.html	(from http://sakti.github.io/python101/)
18:48:13	28442/28442	---MC-	200	added ('OK')	text/html	date:Fri,%2026%20Apr%202013%2002:17:40%20GMT	http://sakti.github.io/python101/struktur_data.html	Python/%20Pemula/Python%20Pemula/sakti.github.io/python101/struktur_data.html	(from http://sakti.github.io/python101/)
18:48:13	22587/22587	---MC-	200	added ('OK')	text/html	date:Fri,%2026%20Apr%202013%2002:17:40%20GMT	http://sakti.github.io/python101/oop.html	Python/%20Pemula/Python%20Pemula/sakti.github.io/python101/oop.html	(from http://sakti.github.io/python101/)
18:48:14	17395/17395	---MC-	200	added ('OK')	text/html	date:Fri,%2026%20Apr%202013%2002:17:40%20GMT	http://sakti.github.io/python101/exception.html	Python/%20Pemula/Python%20Pemula/sakti.github.io/python101/exception.html	(from http://sakti.github.io/python101/)
18:48:14	6458/6458	---MC-	200	added ('OK')	text/html	date:Fri,%2026%20Apr%202013%2002:17:40%20GMT	http://sakti.github.io/python101/kontributor.html	Python/%20Pemula/Python%20Pemula/sakti.github.io/python101/kontributor.html	(from http://sakti.github.io/python101/)
18:48:15	5593/5593	---MC-	200	added ('OK')	text/html	date:Fri,%2026%20Apr%202013%2002:17:40%20GMT	http://sakti.github.io/python101/referensi.html	Python/%20Pemula/Python%20Pemula/sakti.github.io/python101/referensi.html	(from http://sakti.github.io/python101/)
18:48:15	18799/18799	---MC-	200	added ('OK')	text/html	date:Fri,%2026%20Apr%202013%2002:17:40%20GMT	http://sakti.github.io/python101/standard_library.html	Python/%20Pemula/Python%20Pemula/sakti.github.io/python101/standard_library.html	(from http://sakti.github.io/python101/)
18:48:15	10671/10671	---MC-	404	error ('Not%20Found')	text/html	etag:%225519ee21-247c%22	http://sakti.github.io/python101/py-modindex.html	Python/%20Pemula/Python%20Pemula/sakti.github.io/python101/py-modindex.html	(from http://sakti.github.io/python101/)
18:48:16	4555/4555	---MC-	200	added ('OK')	text/html	date:Fri,%2026%20Apr%202013%2002:17:40%20GMT	http://sakti.github.io/python101/search.html	Python/%20Pemula/Python%20Pemula/sakti.github.io/python101/search.html	(from http://sakti.github.io/python101/)
18:48:16	1025/1025	---MC-	200	added ('OK')	image/png	date:Fri,%2026%20Apr%202013%2002:17:40%20GMT	http://sakti.github.io/python101/_static/subtle_dots.png	Python/%20Pemula/Python%20Pemula/sakti.github.io/python101/_static/subtle_dots.png	(from http://sakti.github.io/python101/_static/solar.css)
18:48:16	8463/8463	---MC-	200	added ('OK')	text/css	date:Fri,%2026%20Apr%202013%2002:17:40%20GMT	http://sakti.github.io/python101/_static/basic.css	Python/%20Pemula/Python%20Pemula/sakti.github.io/python101/_static/basic.css	(from http://sakti.github.io/python101/_static/solar.css)
18:48:17	14535/14535	---MC-	200	added ('OK')	text/html	date:Fri,%2026%20Apr%202013%2002:17:40%20GMT	http://sakti.github.io/python101/index.html	Python/%20Pemula/Python%20Pemula/sakti.github.io/python101/index-2.html	(from http://sakti.github.io/python101/pendahuluan.html)
18:48:17	2877/2877	---MC-	200	added ('OK')	text/plain	date:Fri,%2026%20Apr%202013%2002:17:40%20GMT	http://sakti.github.io/python101/_sources/pendahuluan.txt	Python/%20Pemula/Python%20Pemula/sakti.github.io/python101/_sources/pendahuluan.txt	(from http://sakti.github.io/python101/pendahuluan.html)
18:48:20	15402/15402	---MC-	200	added ('OK')	image/png	date:Fri,%2026%20Apr%202013%2002:17:40%20GMT	http://sakti.github.io/python101/_images/python_on_windows.png	Python/%20Pemula/Python%20Pemula/sakti.github.io/python101/_images/python_on_windows.png	(from http://sakti.github.io/python101/pendahuluan.html)
18:48:23	22803/22803	---MC-	200	added ('OK')	image/png	date:Fri,%2026%20Apr%202013%2002:17:40%20GMT	http://sakti.github.io/python101/_images/python_on_mac.png	Python/%20Pemula/Python%20Pemula/sakti.github.io/python101/_images/python_on_mac.png	(from http://sakti.github.io/python101/pendahuluan.html)
18:48:23	26352/26352	---MC-	200	added ('OK')	image/png	date:Fri,%2026%20Apr%202013%2002:17:40%20GMT	http://sakti.github.io/python101/_images/python_on_linux.png	Python/%20Pemula/Python%20Pemula/sakti.github.io/python101/_images/python_on_linux.png	(from http://sakti.github.io/python101/pendahuluan.html)
18:48:23	31930/31930	---MC-	200	added ('OK')	image/png	date:Fri,%2026%20Apr%202013%2002:17:40%20GMT	http://sakti.github.io/python101/_images/python_path_windows.png	Python/%20Pemula/Python%20Pemula/sakti.github.io/python101/_images/python_path_windows.png	(from http://sakti.github.io/python101/pendahuluan.html)
18:48:27	11740/11740	---MC-	200	added ('OK')	text/plain	date:Fri,%2026%20Apr%202013%2002:17:40%20GMT	http://sakti.github.io/python101/_sources/dasar.txt	Python/%20Pemula/Python%20Pemula/sakti.github.io/python101/_sources/dasar.txt	(from http://sakti.github.io/python101/dasar.html)
18:48:34	85998/85998	---MC-	200	added ('OK')	image/png	date:Fri,%2026%20Apr%202013%2002:17:40%20GMT	http://sakti.github.io/python101/_images/vim-python.png	Python/%20Pemula/Python%20Pemula/sakti.github.io/python101/_images/vim-python.png	(from http://sakti.github.io/python101/pendahuluan.html)
18:48:36	30627/30627	---MC-	200	added ('OK')	image/png	date:Fri,%2026%20Apr%202013%2002:17:40%20GMT	http://sakti.github.io/python101/_images/lat1.py.png	Python/%20Pemula/Python%20Pemula/sakti.github.io/python101/_images/lat1.py.png	(from http://sakti.github.io/python101/dasar.html)
18:48:37	9245/9245	---MC-	200	added ('OK')	text/plain	date:Fri,%2026%20Apr%202013%2002:17:40%20GMT	http://sakti.github.io/python101/_sources/operator_dan_ekspresi.txt	Python/%20Pemula/Python%20Pemula/sakti.github.io/python101/_sources/operator_dan_ekspresi.txt	(from http://sakti.github.io/python101/operator_dan_ekspresi.html)
18:48:37	95748/95748	---MC-	200	added ('OK')	image/png	date:Fri,%2026%20Apr%202013%2002:17:40%20GMT	http://sakti.github.io/python101/_images/sublimetext2_python.png	Python/%20Pemula/Python%20Pemula/sakti.github.io/python101/_images/sublimetext2_python.png	(from http://sakti.github.io/python101/pendahuluan.html)
18:48:37	6048/6048	---MC-	200	added ('OK')	text/plain	date:Fri,%2026%20Apr%202013%2002:17:40%20GMT	http://sakti.github.io/python101/_sources/alur_kontrol.txt	Python/%20Pemula/Python%20Pemula/sakti.github.io/python101/_sources/alur_kontrol.txt	(from http://sakti.github.io/python101/alur_kontrol.html)
18:48:38	4818/4818	---MC-	200	added ('OK')	text/plain	date:Fri,%2026%20Apr%202013%2002:17:40%20GMT	http://sakti.github.io/python101/_sources/fungsi.txt	Python/%20Pemula/Python%20Pemula/sakti.github.io/python101/_sources/fungsi.txt	(from http://sakti.github.io/python101/fungsi.html)
18:48:38	3973/3973	---MC-	200	added ('OK')	text/plain	date:Fri,%2026%20Apr%202013%2002:17:40%20GMT	http://sakti.github.io/python101/_sources/modul.txt	Python/%20Pemula/Python%20Pemula/sakti.github.io/python101/_sources/modul.txt	(from http://sakti.github.io/python101/modul.html)
18:48:39	6943/6943	---MC-	200	added ('OK')	text/plain	date:Fri,%2026%20Apr%202013%2002:17:40%20GMT	http://sakti.github.io/python101/_sources/struktur_data.txt	Python/%20Pemula/Python%20Pemula/sakti.github.io/python101/_sources/struktur_data.txt	(from http://sakti.github.io/python101/struktur_data.html)
18:48:39	5257/5257	---MC-	200	added ('OK')	text/plain	date:Fri,%2026%20Apr%202013%2002:17:40%20GMT	http://sakti.github.io/python101/_sources/oop.txt	Python/%20Pemula/Python%20Pemula/sakti.github.io/python101/_sources/oop.txt	(from http://sakti.github.io/python101/oop.html)
18:48:39	1936/1936	---MC-	200	added ('OK')	text/plain	date:Fri,%2026%20Apr%202013%2002:17:40%20GMT	http://sakti.github.io/python101/_sources/io.txt	Python/%20Pemula/Python%20Pemula/sakti.github.io/python101/_sources/io.txt	(from http://sakti.github.io/python101/io.html)
18:48:40	3607/3607	---MC-	200	added ('OK')	text/plain	date:Fri,%2026%20Apr%202013%2002:17:40%20GMT	http://sakti.github.io/python101/_sources/exception.txt	Python/%20Pemula/Python%20Pemula/sakti.github.io/python101/_sources/exception.txt	(from http://sakti.github.io/python101/exception.html)
18:48:40	109782/109782	---MC-	200	added ('OK')	image/png	date:Fri,%2026%20Apr%202013%2002:17:40%20GMT	http://sakti.github.io/python101/_images/emacs-python.png	Python/%20Pemula/Python%20Pemula/sakti.github.io/python101/_images/emacs-python.png	(from http://sakti.github.io/python101/pendahuluan.html)
18:48:40	3386/3386	---MC-	200	added ('OK')	text/plain	date:Fri,%2026%20Apr%202013%2002:17:40%20GMT	http://sakti.github.io/python101/_sources/standard_library.txt	Python/%20Pemula/Python%20Pemula/sakti.github.io/python101/_sources/standard_library.txt	(from http://sakti.github.io/python101/standard_library.html)
18:48:40	530/530	---MC-	200	added ('OK')	text/plain	date:Fri,%2026%20Apr%202013%2002:17:40%20GMT	http://sakti.github.io/python101/_sources/kontributor.txt	Python/%20Pemula/Python%20Pemula/sakti.github.io/python101/_sources/kontributor.txt	(from http://sakti.github.io/python101/kontributor.html)
18:48:41	614/614	---MC-	200	added ('OK')	text/plain	date:Fri,%2026%20Apr%202013%2002:17:40%20GMT	http://sakti.github.io/python101/_sources/referensi.txt	Python/%20Pemula/Python%20Pemula/sakti.github.io/python101/_sources/referensi.txt	(from http://sakti.github.io/python101/referensi.html)
18:48:42	16043/16043	---MC-	200	added ('OK')	application/javascript	date:Fri,%2026%20Apr%202013%2002:17:40%20GMT	http://sakti.github.io/python101/_static/searchtools.js	Python/%20Pemula/Python%20Pemula/sakti.github.io/python101/_static/searchtools.js	(from http://sakti.github.io/python101/search.html)
18:48:42	392/392	---MC-	200	added ('OK')	image/png	date:Fri,%2026%20Apr%202013%2002:17:40%20GMT	http://sakti.github.io/python101/_static/file.png	Python/%20Pemula/Python%20Pemula/sakti.github.io/python101/_static/file.png	(from http://sakti.github.io/python101/_static/basic.css)
18:48:42	16795/16795	---MC-	200	added ('OK')	application/javascript	date:Fri,%2026%20Apr%202013%2002:17:40%20GMT	http://sakti.github.io/python101/searchindex.js	Python/%20Pemula/Python%20Pemula/sakti.github.io/python101/searchindex.js	(from http://sakti.github.io/python101/search.html)
